{
  "variables": {
    "aws_access_key": "",
    "aws_secret_key": "",
    "source_ami": "",
    "region":"",
    "instance_type":"",
    "ami_name":""
  },
  "builders": [
  {
    "name": "ProdMigrationTestAMIBuilder",
    "run_tags": { 
      "Qubole": "ProdMigrationTestAMIBuilder",
      "Description"  : "This builds the AMI to use for testing migrations of prod RDS replica" 
    },
    "type": "amazon-ebs",
    "access_key": "{{user `aws_access_key`}}",
    "secret_key": "{{user `aws_secret_key`}}",
    "source_ami": "{{user `source_ami`}}",
    "region": "{{user `region`}}",
    "instance_type": "{{user `instance_type`}}",
    "ssh_username": "ec2-user",
    "ami_name": "{{user `ami_name`}}-{{isotime \"2006-01-02 13-04-05\" | clean_ami_name}}",
    "ami_users": ["805246085872", "330183209093"],
    "security_group_id": "sg-0776636e",
    "ami_block_device_mappings": [
      {
        "device_name": "/dev/sdb",
        "virtual_name": "ephemeral0"
      },
      {
        "device_name": "/dev/sdc",
        "virtual_name": "ephemeral1"
      }
    ],
    "launch_block_device_mappings": [
      {
        "device_name": "/dev/sdb",
        "virtual_name": "ephemeral0"
      },
      {
        "device_name": "/dev/sdc",
        "virtual_name": "ephemeral1"
      }
    ]
  }],
  "provisioners": [
    {
      "type": "shell",
      "script": "migrationtest/setup_and_run_chef.sh",
      "execute_command": "{{ .Vars }} sudo -E -S bash '{{ .Path }}'"
    }
  ]
}
